[
    {
        "id": 17,
        "created_at": "2020-11-12T20:07:58.156Z",
        "filename": "sample_2054",
        "file_path": "/uploads/-/system/issuable_metric_image/file/17/sample_2054.png",
        "url": "example.com/metric"
    },
    {
        "id": 18,
        "created_at": "2020-11-12T20:14:26.441Z",
        "filename": "sample_2054",
        "file_path": "/uploads/-/system/issuable_metric_image/file/18/sample_2054.png",
        "url": "example.com/metric"
    }
]
