[
  {
    "id": 2,
    "name": "Bar Group",
    "path": "foo/bar",
    "description": "A subgroup of Foo Group",
    "visibility": "public",
    "share_with_group_lock": false,
    "require_two_factor_authentication": false,
    "two_factor_grace_period": 48,
    "project_creation_level": "developer",
    "auto_devops_enabled": null,
    "subgroup_creation_level": "owner",
    "emails_disabled": null,
    "mentions_disabled": null,
    "lfs_enabled": true,
    "default_branch_protection": 2,
    "avatar_url": "http://gitlab.example.com/uploads/group/avatar/1/bar.jpg",
    "web_url": "http://gitlab.example.com/groups/foo/bar",
    "request_access_enabled": false,
    "full_name": "Bar Group",
    "full_path": "foo/bar",
    "file_template_project_id": 1,
    "parent_id": 123,
    "created_at": "2020-01-15T12:36:29.59Z"
  },
  {
    "id": 3,
    "name": "Baz Group",
    "path": "foo/bar/baz",
    "description": "A subgroup of Bar Group",
    "visibility": "public",
    "share_with_group_lock": false,
    "require_two_factor_authentication": false,
    "two_factor_grace_period": 48,
    "project_creation_level": "developer",
    "auto_devops_enabled": null,
    "subgroup_creation_level": "owner",
    "emails_disabled": null,
    "mentions_disabled": null,
    "lfs_enabled": true,
    "default_branch_protection": 2,
    "avatar_url": "http://gitlab.example.com/uploads/group/avatar/1/baz.jpg",
    "web_url": "http://gitlab.example.com/groups/foo/bar/baz",
    "request_access_enabled": false,
    "full_name": "Baz Group",
    "full_path": "foo/bar/baz",
    "file_template_project_id": 1,
    "parent_id": 123,
    "created_at": "2020-01-15T12:36:29.59Z"
  }
]
