[
  {
    "commit": {
      "id": "d42409d56517157c48bf3bd97d3f75974dde19fb",
      "message": "Add feature\n\nalso fix bug\n",
      "parent_ids": [
        "cc6e14f9328fa6d7b5a0d3c30dc2002a3f2a3822"
      ],
      "authored_date": "2015-12-18T08:12:22.000Z",
      "author_name": "John Doe",
      "author_email": "john.doe@example.com",
      "committed_date": "2015-12-18T08:12:22.000Z",
      "committer_name": "John Doe",
      "committer_email": "john.doe@example.com"
    },
    "lines": [
      "require 'fileutils'",
      "require 'open3'",
      ""
    ]
  }
]

